Google Data Analysis Capstone Project - Bellabeat Case Study
…
In the analyse stage I will examine and organize the data to try and discover insights and relationships.

To get the mean hourly steps and calories for each hour of the day

Hourly_Steps <- hourly_activity %>% group_by(Hour = hours(Date_Time),Period_of_day) %>% summarise(Mean_Steps = mean(StepTotal)) %>%  arrange(Period_of_day)

## `summarise()` has grouped output by 'Hour'. You can override using the `.groups` argument.

Hourly_Steps <- Hourly_Steps[c(1:11,24,13:23,12),]

Hourly_Steps <- Hourly_Steps %>%  unite("Time_Of_Day",Hour,Period_of_day,sep = " ")

Hourly_Steps %>% arrange(desc(Mean_Steps))

## # A tibble: 24 x 2
##    Time_Of_Day Mean_Steps
##    <chr>            <dbl>
##  1 6 PM              599.
##  2 7 PM              583.
##  3 5 PM              550.
##  4 12 PM             549.
##  5 2 PM              541.
##  6 1 PM              538.
##  7 4 PM              497.
##  8 10 AM             482.
##  9 11 AM             457.
## 10 9 AM              433.
## # ... with 14 more rows

The table shows the times of the day and the corresponding steps taken from the most to the least it shows that 6pm is the hour the participants generally take the most steps and 3am is the hour with the least steps taken

Hourly_Calories <- hourly_activity %>% group_by(Hour = hours(Date_Time),Period_of_day) %>% summarise(Mean_Calories = mean(Calories)) %>%  arrange(Period_of_day)

## `summarise()` has grouped output by 'Hour'. You can override using the `.groups` argument.

Hourly_Calories <- Hourly_Calories[c(1:11,24,13:23,12),]

Hourly_Calories <- Hourly_Calories %>%  unite("Time_Of_Day",Hour,Period_of_day,sep = " ")

Hourly_Calories %>% arrange(desc(Mean_Calories))

## # A tibble: 24 x 2
##    Time_Of_Day Mean_Calories
##    <chr>               <dbl>
##  1 6 PM                 123.
##  2 5 PM                 123.
##  3 7 PM                 121.
##  4 12 PM                117.
##  5 2 PM                 116.
##  6 1 PM                 115.
##  7 4 PM                 113.
##  8 10 AM                110.
##  9 11 AM                110.
## 10 3 PM                 107.
## # ... with 14 more rows
…
